1365573584|~|1.04|~|29.85|~|error|~|Exhausted all known exec() path possibilities with no success.
1365573663|~|0.72|~|24.14|~|error|~|Exhausted all known exec() path possibilities with no success.
1365574592|~|1.31|~|29.86|~|error|~|Exhausted all known exec() path possibilities with no success.
